%YAML 1.1
%TAG !u! tag:unity3d.com,2011:
--- !u!29 &1
OcclusionCullingSettings:
  m_ObjectHideFlags: 0
  serializedVersion: 2
  m_OcclusionBakeSettings:
    smallestOccluder: 5
    smallestHole: 0.25
    backfaceThreshold: 100
  m_SceneGUID: 00000000000000000000000000000000
  m_OcclusionCullingData: {fileID: 0}
--- !u!104 &2
RenderSettings:
  m_ObjectHideFlags: 0
  serializedVersion: 9
  m_Fog: 0
  m_FogColor: {r: 0.5, g: 0.5, b: 0.5, a: 1}
  m_FogMode: 3
  m_FogDensity: 0.01
  m_LinearFogStart: 0
  m_LinearFogEnd: 300
  m_AmbientSkyColor: {r: 0.212, g: 0.227, b: 0.259, a: 1}
  m_AmbientEquatorColor: {r: 0.114, g: 0.125, b: 0.133, a: 1}
  m_AmbientGroundColor: {r: 0.047, g: 0.043, b: 0.035, a: 1}
  m_AmbientIntensity: 1
  m_AmbientMode: 0
  m_SubtractiveShadowColor: {r: 0.42, g: 0.478, b: 0.627, a: 1}
  m_SkyboxMaterial: {fileID: 10304, guid: 0000000000000000f000000000000000, type: 0}
  m_HaloStrength: 0.5
  m_FlareStrength: 1
  m_FlareFadeSpeed: 3
  m_HaloTexture: {fileID: 0}
  m_SpotCookie: {fileID: 10001, guid: 0000000000000000e000000000000000, type: 0}
  m_DefaultReflectionMode: 0
  m_DefaultReflectionResolution: 128
  m_ReflectionBounces: 1
  m_ReflectionIntensity: 1
  m_CustomReflection: {fileID: 0}
  m_Sun: {fileID: 0}
  m_IndirectSpecularColor: {r: 0.44657844, g: 0.49641222, b: 0.57481694, a: 1}
  m_UseRadianceAmbientProbe: 0
--- !u!157 &4
LightmapSettings:
  m_ObjectHideFlags: 0
  serializedVersion: 11
  m_GIWorkflowMode: 0
  m_GISettings:
    serializedVersion: 2
    m_BounceScale: 1
    m_IndirectOutputScale: 1
    m_AlbedoBoost: 1
    m_EnvironmentLightingMode: 0
    m_EnableBakedLightmaps: 1
    m_EnableRealtimeLightmaps: 1
  m_LightmapEditorSettings:
    serializedVersion: 10
    m_Resolution: 2
    m_BakeResolution: 40
    m_AtlasSize: 1024
    m_AO: 0
    m_AOMaxDistance: 1
    m_CompAOExponent: 0
    m_CompAOExponentDirect: 0
    m_Padding: 2
    m_LightmapParameters: {fileID: 0}
    m_LightmapsBakeMode: 1
    m_TextureCompression: 1
    m_FinalGather: 0
    m_FinalGatherFiltering: 1
    m_FinalGatherRayCount: 1024
    m_ReflectionCompression: 2
    m_MixedBakeMode: 1
    m_BakeBackend: 0
    m_PVRSampling: 1
    m_PVRDirectSampleCount: 32
    m_PVRSampleCount: 500
    m_PVRBounces: 2
    m_PVRFilterTypeDirect: 0
    m_PVRFilterTypeIndirect: 0
    m_PVRFilterTypeAO: 0
    m_PVRFilteringMode: 0
    m_PVRCulling: 1
    m_PVRFilteringGaussRadiusDirect: 1
    m_PVRFilteringGaussRadiusIndirect: 5
    m_PVRFilteringGaussRadiusAO: 2
    m_PVRFilteringAtrousPositionSigmaDirect: 0.5
    m_PVRFilteringAtrousPositionSigmaIndirect: 2
    m_PVRFilteringAtrousPositionSigmaAO: 1
    m_ShowResolutionOverlay: 1
  m_LightingDataAsset: {fileID: 0}
  m_UseShadowmask: 0
--- !u!196 &5
NavMeshSettings:
  serializedVersion: 2
  m_ObjectHideFlags: 0
  m_BuildSettings:
    serializedVersion: 2
    agentTypeID: 0
    agentRadius: 0.5
    agentHeight: 2
    agentSlope: 45
    agentClimb: 0.4
    ledgeDropHeight: 0
    maxJumpAcrossDistance: 0
    minRegionArea: 2
    manualCellSize: 0
    cellSize: 0.16666667
    manualTileSize: 0
    tileSize: 256
    accuratePlacement: 0
    debug:
      m_Flags: 0
  m_NavMeshData: {fileID: 0}
--- !u!1001 &425977761
PrefabInstance:
  m_ObjectHideFlags: 0
  serializedVersion: 2
  m_Modification:
    m_TransformParent: {fileID: 0}
    m_Modifications:
    - target: {fileID: 400000, guid: 4c353744a83ae5745bb27b93adc5aef9, type: 3}
      propertyPath: m_LocalPosition.x
      value: -.0370000005
      objectReference: {fileID: 0}
    - target: {fileID: 400000, guid: 4c353744a83ae5745bb27b93adc5aef9, type: 3}
      propertyPath: m_LocalPosition.y
      value: 0
      objectReference: {fileID: 0}
    - target: {fileID: 400000, guid: 4c353744a83ae5745bb27b93adc5aef9, type: 3}
      propertyPath: m_LocalPosition.z
      value: -.425999999
      objectReference: {fileID: 0}
    - target: {fileID: 400000, guid: 4c353744a83ae5745bb27b93adc5aef9, type: 3}
      propertyPath: m_LocalRotation.x
      value: 0
      objectReference: {fileID: 0}
    - target: {fileID: 400000, guid: 4c353744a83ae5745bb27b93adc5aef9, type: 3}
      propertyPath: m_LocalRotation.y
      value: 0
      objectReference: {fileID: 0}
    - target: {fileID: 400000, guid: 4c353744a83ae5745bb27b93adc5aef9, type: 3}
      propertyPath: m_LocalRotation.z
      value: 0
      objectReference: {fileID: 0}
    - target: {fileID: 400000, guid: 4c353744a83ae5745bb27b93adc5aef9, type: 3}
      propertyPath: m_LocalRotation.w
      value: 1
      objectReference: {fileID: 0}
    - target: {fileID: 400000, guid: 4c353744a83ae5745bb27b93adc5aef9, type: 3}
      propertyPath: m_RootOrder
      value: 8
      objectReference: {fileID: 0}
    m_RemovedComponents: []
  m_SourcePrefab: {fileID: 100100000, guid: 4c353744a83ae5745bb27b93adc5aef9, type: 3}
--- !u!1001 &465239461
PrefabInstance:
  m_ObjectHideFlags: 0
  serializedVersion: 2
  m_Modification:
    m_TransformParent: {fileID: 0}
    m_Modifications:
    - target: {fileID: 400000, guid: a4d82dec49a83134888319ab24d2f781, type: 3}
      propertyPath: m_LocalPosition.x
      value: .5
      objectReference: {fileID: 0}
    - target: {fileID: 400000, guid: a4d82dec49a83134888319ab24d2f781, type: 3}
      propertyPath: m_LocalPosition.y
      value: 0
      objectReference: {fileID: 0}
    - target: {fileID: 400000, guid: a4d82dec49a83134888319ab24d2f781, type: 3}
      propertyPath: m_LocalPosition.z
      value: 0
      objectReference: {fileID: 0}
    - target: {fileID: 400000, guid: a4d82dec49a83134888319ab24d2f781, type: 3}
      propertyPath: m_LocalRotation.x
      value: 0
      objectReference: {fileID: 0}
    - target: {fileID: 400000, guid: a4d82dec49a83134888319ab24d2f781, type: 3}
      propertyPath: m_LocalRotation.y
      value: 0
      objectReference: {fileID: 0}
    - target: {fileID: 400000, guid: a4d82dec49a83134888319ab24d2f781, type: 3}
      propertyPath: m_LocalRotation.z
      value: 0
      objectReference: {fileID: 0}
    - target: {fileID: 400000, guid: a4d82dec49a83134888319ab24d2f781, type: 3}
      propertyPath: m_LocalRotation.w
      value: 1
      objectReference: {fileID: 0}
    - target: {fileID: 400000, guid: a4d82dec49a83134888319ab24d2f781, type: 3}
      propertyPath: m_RootOrder
      value: 21
      objectReference: {fileID: 0}
    m_RemovedComponents: []
  m_SourcePrefab: {fileID: 100100000, guid: a4d82dec49a83134888319ab24d2f781, type: 3}
--- !u!1001 &563173973
PrefabInstance:
  m_ObjectHideFlags: 0
  serializedVersion: 2
  m_Modification:
    m_TransformParent: {fileID: 0}
    m_Modifications:
    - target: {fileID: 400000, guid: 1ce8ed7c85fff054fb72b254d446f3a7, type: 3}
      propertyPath: m_LocalPosition.x
      value: .503000021
      objectReference: {fileID: 0}
    - target: {fileID: 400000, guid: 1ce8ed7c85fff054fb72b254d446f3a7, type: 3}
      propertyPath: m_LocalPosition.y
      value: 0
      objectReference: {fileID: 0}
    - target: {fileID: 400000, guid: 1ce8ed7c85fff054fb72b254d446f3a7, type: 3}
      propertyPath: m_LocalPosition.z
      value: -.50120002
      objectReference: {fileID: 0}
    - target: {fileID: 400000, guid: 1ce8ed7c85fff054fb72b254d446f3a7, type: 3}
      propertyPath: m_LocalRotation.x
      value: 0
      objectReference: {fileID: 0}
    - target: {fileID: 400000, guid: 1ce8ed7c85fff054fb72b254d446f3a7, type: 3}
      propertyPath: m_LocalRotation.y
      value: 0
      objectReference: {fileID: 0}
    - target: {fileID: 400000, guid: 1ce8ed7c85fff054fb72b254d446f3a7, type: 3}
      propertyPath: m_LocalRotation.z
      value: 0
      objectReference: {fileID: 0}
    - target: {fileID: 400000, guid: 1ce8ed7c85fff054fb72b254d446f3a7, type: 3}
      propertyPath: m_LocalRotation.w
      value: 1
      objectReference: {fileID: 0}
    - target: {fileID: 400000, guid: 1ce8ed7c85fff054fb72b254d446f3a7, type: 3}
      propertyPath: m_RootOrder
      value: 19
      objectReference: {fileID: 0}
    m_RemovedComponents: []
  m_SourcePrefab: {fileID: 100100000, guid: 1ce8ed7c85fff054fb72b254d446f3a7, type: 3}
--- !u!1001 &591925990
PrefabInstance:
  m_ObjectHideFlags: 0
  serializedVersion: 2
  m_Modification:
    m_TransformParent: {fileID: 0}
    m_Modifications:
    - target: {fileID: 439054, guid: 4873d77a2f95dbf4db1bb1a13518a221, type: 3}
      propertyPath: m_LocalPosition.x
      value: -.49706316
      objectReference: {fileID: 0}
    - target: {fileID: 439054, guid: 4873d77a2f95dbf4db1bb1a13518a221, type: 3}
      propertyPath: m_LocalPosition.y
      value: -3.57240992e-07
      objectReference: {fileID: 0}
    - target: {fileID: 439054, guid: 4873d77a2f95dbf4db1bb1a13518a221, type: 3}
      propertyPath: m_LocalPosition.z
      value: -.686814368
      objectReference: {fileID: 0}
    - target: {fileID: 439054, guid: 4873d77a2f95dbf4db1bb1a13518a221, type: 3}
      propertyPath: m_LocalRotation.x
      value: -.702818751
      objectReference: {fileID: 0}
    - target: {fileID: 439054, guid: 4873d77a2f95dbf4db1bb1a13518a221, type: 3}
      propertyPath: m_LocalRotation.y
      value: -.702818751
      objectReference: {fileID: 0}
    - target: {fileID: 439054, guid: 4873d77a2f95dbf4db1bb1a13518a221, type: 3}
      propertyPath: m_LocalRotation.z
      value: .0777551606
      objectReference: {fileID: 0}
    - target: {fileID: 439054, guid: 4873d77a2f95dbf4db1bb1a13518a221, type: 3}
      propertyPath: m_LocalRotation.w
      value: .0777550936
      objectReference: {fileID: 0}
    - target: {fileID: 439054, guid: 4873d77a2f95dbf4db1bb1a13518a221, type: 3}
      propertyPath: m_RootOrder
      value: 28
      objectReference: {fileID: 0}
    m_RemovedComponents: []
  m_SourcePrefab: {fileID: 100100000, guid: 4873d77a2f95dbf4db1bb1a13518a221, type: 3}
--- !u!1001 &641454943
PrefabInstance:
  m_ObjectHideFlags: 0
  serializedVersion: 2
  m_Modification:
    m_TransformParent: {fileID: 0}
    m_Modifications:
    - target: {fileID: 400000, guid: ebaac61b30e61cc48acf9efa4e842a8f, type: 3}
      propertyPath: m_LocalPosition.x
      value: .600000024
      objectReference: {fileID: 0}
    - target: {fileID: 400000, guid: ebaac61b30e61cc48acf9efa4e842a8f, type: 3}
      propertyPath: m_LocalPosition.y
      value: 0
      objectReference: {fileID: 0}
    - target: {fileID: 400000, guid: ebaac61b30e61cc48acf9efa4e842a8f, type: 3}
      propertyPath: m_LocalPosition.z
      value: -.25
      objectReference: {fileID: 0}
    - target: {fileID: 400000, guid: ebaac61b30e61cc48acf9efa4e842a8f, type: 3}
      propertyPath: m_LocalRotation.x
      value: 0
      objectReference: {fileID: 0}
    - target: {fileID: 400000, guid: ebaac61b30e61cc48acf9efa4e842a8f, type: 3}
      propertyPath: m_LocalRotation.y
      value: 0
      objectReference: {fileID: 0}
    - target: {fileID: 400000, guid: ebaac61b30e61cc48acf9efa4e842a8f, type: 3}
      propertyPath: m_LocalRotation.z
      value: 0
      objectReference: {fileID: 0}
    - target: {fileID: 400000, guid: ebaac61b30e61cc48acf9efa4e842a8f, type: 3}
      propertyPath: m_LocalRotation.w
      value: 1
      objectReference: {fileID: 0}
    - target: {fileID: 400000, guid: ebaac61b30e61cc48acf9efa4e842a8f, type: 3}
      propertyPath: m_RootOrder
      value: 27
      objectReference: {fileID: 0}
    m_RemovedComponents: []
  m_SourcePrefab: {fileID: 100100000, guid: ebaac61b30e61cc48acf9efa4e842a8f, type: 3}
--- !u!1001 &653068267
PrefabInstance:
  m_ObjectHideFlags: 0
  serializedVersion: 2
  m_Modification:
    m_TransformParent: {fileID: 0}
    m_Modifications:
    - target: {fileID: 400000, guid: 9a1a547a0a3ed4a45a7f78e3e5e82920, type: 3}
      propertyPath: m_LocalPosition.x
      value: 0
      objectReference: {fileID: 0}
    - target: {fileID: 400000, guid: 9a1a547a0a3ed4a45a7f78e3e5e82920, type: 3}
      propertyPath: m_LocalPosition.y
      value: 0
      objectReference: {fileID: 0}
    - target: {fileID: 400000, guid: 9a1a547a0a3ed4a45a7f78e3e5e82920, type: 3}
      propertyPath: m_LocalPosition.z
      value: 0
      objectReference: {fileID: 0}
    - target: {fileID: 400000, guid: 9a1a547a0a3ed4a45a7f78e3e5e82920, type: 3}
      propertyPath: m_LocalRotation.x
      value: 0
      objectReference: {fileID: 0}
    - target: {fileID: 400000, guid: 9a1a547a0a3ed4a45a7f78e3e5e82920, type: 3}
      propertyPath: m_LocalRotation.y
      value: 0
      objectReference: {fileID: 0}
    - target: {fileID: 400000, guid: 9a1a547a0a3ed4a45a7f78e3e5e82920, type: 3}
      propertyPath: m_LocalRotation.z
      value: 0
      objectReference: {fileID: 0}
    - target: {fileID: 400000, guid: 9a1a547a0a3ed4a45a7f78e3e5e82920, type: 3}
      propertyPath: m_LocalRotation.w
      value: 1
      objectReference: {fileID: 0}
    - target: {fileID: 400000, guid: 9a1a547a0a3ed4a45a7f78e3e5e82920, type: 3}
      propertyPath: m_RootOrder
      value: 15
      objectReference: {fileID: 0}
    m_RemovedComponents: []
  m_SourcePrefab: {fileID: 100100000, guid: 9a1a547a0a3ed4a45a7f78e3e5e82920, type: 3}
--- !u!1001 &686967477
PrefabInstance:
  m_ObjectHideFlags: 0
  serializedVersion: 2
  m_Modification:
    m_TransformParent: {fileID: 0}
    m_Modifications:
    - target: {fileID: 400000, guid: 06e6858b3005b7241975932ea4f45746, type: 3}
      propertyPath: m_LocalPosition.x
      value: 0
      objectReference: {fileID: 0}
    - target: {fileID: 400000, guid: 06e6858b3005b7241975932ea4f45746, type: 3}
      propertyPath: m_LocalPosition.y
      value: 0
      objectReference: {fileID: 0}
    - target: {fileID: 400000, guid: 06e6858b3005b7241975932ea4f45746, type: 3}
      propertyPath: m_LocalPosition.z
      value: -.300000012
      objectReference: {fileID: 0}
    - target: {fileID: 400000, guid: 06e6858b3005b7241975932ea4f45746, type: 3}
      propertyPath: m_LocalRotation.x
      value: 0
      objectReference: {fileID: 0}
    - target: {fileID: 400000, guid: 06e6858b3005b7241975932ea4f45746, type: 3}
      propertyPath: m_LocalRotation.y
      value: 0
      objectReference: {fileID: 0}
    - target: {fileID: 400000, guid: 06e6858b3005b7241975932ea4f45746, type: 3}
      propertyPath: m_LocalRotation.z
      value: 0
      objectReference: {fileID: 0}
    - target: {fileID: 400000, guid: 06e6858b3005b7241975932ea4f45746, type: 3}
      propertyPath: m_LocalRotation.w
      value: 1
      objectReference: {fileID: 0}
    - target: {fileID: 400000, guid: 06e6858b3005b7241975932ea4f45746, type: 3}
      propertyPath: m_RootOrder
      value: 10
      objectReference: {fileID: 0}
    m_RemovedComponents: []
  m_SourcePrefab: {fileID: 100100000, guid: 06e6858b3005b7241975932ea4f45746, type: 3}
--- !u!1001 &703091797
PrefabInstance:
  m_ObjectHideFlags: 0
  serializedVersion: 2
  m_Modification:
    m_TransformParent: {fileID: 0}
    m_Modifications:
    - target: {fileID: 400000, guid: fb3f118fa412516419b2968cccf85f4f, type: 3}
      propertyPath: m_LocalPosition.x
      value: .25
      objectReference: {fileID: 0}
    - target: {fileID: 400000, guid: fb3f118fa412516419b2968cccf85f4f, type: 3}
      propertyPath: m_LocalPosition.y
      value: 0
      objectReference: {fileID: 0}
    - target: {fileID: 400000, guid: fb3f118fa412516419b2968cccf85f4f, type: 3}
      propertyPath: m_LocalPosition.z
      value: -.300000012
      objectReference: {fileID: 0}
    - target: {fileID: 400000, guid: fb3f118fa412516419b2968cccf85f4f, type: 3}
      propertyPath: m_LocalRotation.x
      value: 0
      objectReference: {fileID: 0}
    - target: {fileID: 400000, guid: fb3f118fa412516419b2968cccf85f4f, type: 3}
      propertyPath: m_LocalRotation.y
      value: 0
      objectReference: {fileID: 0}
    - target: {fileID: 400000, guid: fb3f118fa412516419b2968cccf85f4f, type: 3}
      propertyPath: m_LocalRotation.z
      value: 0
      objectReference: {fileID: 0}
    - target: {fileID: 400000, guid: fb3f118fa412516419b2968cccf85f4f, type: 3}
      propertyPath: m_LocalRotation.w
      value: 1
      objectReference: {fileID: 0}
    - target: {fileID: 400000, guid: fb3f118fa412516419b2968cccf85f4f, type: 3}
      propertyPath: m_RootOrder
      value: 11
      objectReference: {fileID: 0}
    m_RemovedComponents: []
  m_SourcePrefab: {fileID: 100100000, guid: fb3f118fa412516419b2968cccf85f4f, type: 3}
--- !u!1001 &765349111
PrefabInstance:
  m_ObjectHideFlags: 0
  serializedVersion: 2
  m_Modification:
    m_TransformParent: {fileID: 0}
    m_Modifications:
    - target: {fileID: 400000, guid: 7504a52ebc1b93645b1eb1c1183f95c1, type: 3}
      propertyPath: m_LocalPosition.x
      value: 0
      objectReference: {fileID: 0}
    - target: {fileID: 400000, guid: 7504a52ebc1b93645b1eb1c1183f95c1, type: 3}
      propertyPath: m_LocalPosition.y
      value: 0
      objectReference: {fileID: 0}
    - target: {fileID: 400000, guid: 7504a52ebc1b93645b1eb1c1183f95c1, type: 3}
      propertyPath: m_LocalPosition.z
      value: -.25
      objectReference: {fileID: 0}
    - target: {fileID: 400000, guid: 7504a52ebc1b93645b1eb1c1183f95c1, type: 3}
      propertyPath: m_LocalRotation.x
      value: 0
      objectReference: {fileID: 0}
    - target: {fileID: 400000, guid: 7504a52ebc1b93645b1eb1c1183f95c1, type: 3}
      propertyPath: m_LocalRotation.y
      value: 0
      objectReference: {fileID: 0}
    - target: {fileID: 400000, guid: 7504a52ebc1b93645b1eb1c1183f95c1, type: 3}
      propertyPath: m_LocalRotation.z
      value: 0
      objectReference: {fileID: 0}
    - target: {fileID: 400000, guid: 7504a52ebc1b93645b1eb1c1183f95c1, type: 3}
      propertyPath: m_LocalRotation.w
      value: 1
      objectReference: {fileID: 0}
    - target: {fileID: 400000, guid: 7504a52ebc1b93645b1eb1c1183f95c1, type: 3}
      propertyPath: m_RootOrder
      value: 25
      objectReference: {fileID: 0}
    m_RemovedComponents: []
  m_SourcePrefab: {fileID: 100100000, guid: 7504a52ebc1b93645b1eb1c1183f95c1, type: 3}
--- !u!1001 &835576267
PrefabInstance:
  m_ObjectHideFlags: 0
  serializedVersion: 2
  m_Modification:
    m_TransformParent: {fileID: 0}
    m_Modifications:
    - target: {fileID: 400000, guid: 58d3d93aba7abb3418892c1366bfc19b, type: 3}
      propertyPath: m_LocalPosition.x
      value: .165999994
      objectReference: {fileID: 0}
    - target: {fileID: 400000, guid: 58d3d93aba7abb3418892c1366bfc19b, type: 3}
      propertyPath: m_LocalPosition.y
      value: 0
      objectReference: {fileID: 0}
    - target: {fileID: 400000, guid: 58d3d93aba7abb3418892c1366bfc19b, type: 3}
      propertyPath: m_LocalPosition.z
      value: -.455000013
      objectReference: {fileID: 0}
    - target: {fileID: 400000, guid: 58d3d93aba7abb3418892c1366bfc19b, type: 3}
      propertyPath: m_LocalRotation.x
      value: 0
      objectReference: {fileID: 0}
    - target: {fileID: 400000, guid: 58d3d93aba7abb3418892c1366bfc19b, type: 3}
      propertyPath: m_LocalRotation.y
      value: 0
      objectReference: {fileID: 0}
    - target: {fileID: 400000, guid: 58d3d93aba7abb3418892c1366bfc19b, type: 3}
      propertyPath: m_LocalRotation.z
      value: 0
      objectReference: {fileID: 0}
    - target: {fileID: 400000, guid: 58d3d93aba7abb3418892c1366bfc19b, type: 3}
      propertyPath: m_LocalRotation.w
      value: 1
      objectReference: {fileID: 0}
    - target: {fileID: 400000, guid: 58d3d93aba7abb3418892c1366bfc19b, type: 3}
      propertyPath: m_RootOrder
      value: 22
      objectReference: {fileID: 0}
    m_RemovedComponents: []
  m_SourcePrefab: {fileID: 100100000, guid: 58d3d93aba7abb3418892c1366bfc19b, type: 3}
--- !u!1001 &870326539
PrefabInstance:
  m_ObjectHideFlags: 0
  serializedVersion: 2
  m_Modification:
    m_TransformParent: {fileID: 0}
    m_Modifications:
    - target: {fileID: 400000, guid: 8cb4c76db66d6ad48a93d1dac19379af, type: 3}
      propertyPath: m_LocalPosition.x
      value: -.181999996
      objectReference: {fileID: 0}
    - target: {fileID: 400000, guid: 8cb4c76db66d6ad48a93d1dac19379af, type: 3}
      propertyPath: m_LocalPosition.y
      value: -.00800000038
      objectReference: {fileID: 0}
    - target: {fileID: 400000, guid: 8cb4c76db66d6ad48a93d1dac19379af, type: 3}
      propertyPath: m_LocalPosition.z
      value: -.31400001
      objectReference: {fileID: 0}
    - target: {fileID: 400000, guid: 8cb4c76db66d6ad48a93d1dac19379af, type: 3}
      propertyPath: m_LocalRotation.x
      value: 0
      objectReference: {fileID: 0}
    - target: {fileID: 400000, guid: 8cb4c76db66d6ad48a93d1dac19379af, type: 3}
      propertyPath: m_LocalRotation.y
      value: 0
      objectReference: {fileID: 0}
    - target: {fileID: 400000, guid: 8cb4c76db66d6ad48a93d1dac19379af, type: 3}
      propertyPath: m_LocalRotation.z
      value: 0
      objectReference: {fileID: 0}
    - target: {fileID: 400000, guid: 8cb4c76db66d6ad48a93d1dac19379af, type: 3}
      propertyPath: m_LocalRotation.w
      value: 1
      objectReference: {fileID: 0}
    - target: {fileID: 400000, guid: 8cb4c76db66d6ad48a93d1dac19379af, type: 3}
      propertyPath: m_RootOrder
      value: 4
      objectReference: {fileID: 0}
    m_RemovedComponents: []
  m_SourcePrefab: {fileID: 100100000, guid: 8cb4c76db66d6ad48a93d1dac19379af, type: 3}
--- !u!1001 &941213616
PrefabInstance:
  m_ObjectHideFlags: 0
  serializedVersion: 2
  m_Modification:
    m_TransformParent: {fileID: 0}
    m_Modifications:
    - target: {fileID: 400000, guid: 3743f7e543a65d44e9bffe2ae84dab54, type: 3}
      propertyPath: m_LocalPosition.x
      value: 1.49399996
      objectReference: {fileID: 0}
    - target: {fileID: 400000, guid: 3743f7e543a65d44e9bffe2ae84dab54, type: 3}
      propertyPath: m_LocalPosition.y
      value: 0
      objectReference: {fileID: 0}
    - target: {fileID: 400000, guid: 3743f7e543a65d44e9bffe2ae84dab54, type: 3}
      propertyPath: m_LocalPosition.z
      value: -.43900001
      objectReference: {fileID: 0}
    - target: {fileID: 400000, guid: 3743f7e543a65d44e9bffe2ae84dab54, type: 3}
      propertyPath: m_LocalRotation.x
      value: 0
      objectReference: {fileID: 0}
    - target: {fileID: 400000, guid: 3743f7e543a65d44e9bffe2ae84dab54, type: 3}
      propertyPath: m_LocalRotation.y
      value: 0
      objectReference: {fileID: 0}
    - target: {fileID: 400000, guid: 3743f7e543a65d44e9bffe2ae84dab54, type: 3}
      propertyPath: m_LocalRotation.z
      value: 0
      objectReference: {fileID: 0}
    - target: {fileID: 400000, guid: 3743f7e543a65d44e9bffe2ae84dab54, type: 3}
      propertyPath: m_LocalRotation.w
      value: 1
      objectReference: {fileID: 0}
    - target: {fileID: 400000, guid: 3743f7e543a65d44e9bffe2ae84dab54, type: 3}
      propertyPath: m_RootOrder
      value: 3
      objectReference: {fileID: 0}
    m_RemovedComponents: []
  m_SourcePrefab: {fileID: 100100000, guid: 3743f7e543a65d44e9bffe2ae84dab54, type: 3}
--- !u!1001 &997333967
PrefabInstance:
  m_ObjectHideFlags: 0
  serializedVersion: 2
  m_Modification:
    m_TransformParent: {fileID: 0}
    m_Modifications:
    - target: {fileID: 400000, guid: e687faeaf7135344a9447c41d84d3e85, type: 3}
      propertyPath: m_LocalPosition.x
      value: 1.36899996
      objectReference: {fileID: 0}
    - target: {fileID: 400000, guid: e687faeaf7135344a9447c41d84d3e85, type: 3}
      propertyPath: m_LocalPosition.y
      value: 0
      objectReference: {fileID: 0}
    - target: {fileID: 400000, guid: e687faeaf7135344a9447c41d84d3e85, type: 3}
      propertyPath: m_LocalPosition.z
      value: -.671999991
      objectReference: {fileID: 0}
    - target: {fileID: 400000, guid: e687faeaf7135344a9447c41d84d3e85, type: 3}
      propertyPath: m_LocalRotation.x
      value: 0
      objectReference: {fileID: 0}
    - target: {fileID: 400000, guid: e687faeaf7135344a9447c41d84d3e85, type: 3}
      propertyPath: m_LocalRotation.y
      value: 0
      objectReference: {fileID: 0}
    - target: {fileID: 400000, guid: e687faeaf7135344a9447c41d84d3e85, type: 3}
      propertyPath: m_LocalRotation.z
      value: 0
      objectReference: {fileID: 0}
    - target: {fileID: 400000, guid: e687faeaf7135344a9447c41d84d3e85, type: 3}
      propertyPath: m_LocalRotation.w
      value: 1
      objectReference: {fileID: 0}
    - target: {fileID: 400000, guid: e687faeaf7135344a9447c41d84d3e85, type: 3}
      propertyPath: m_RootOrder
      value: 18
      objectReference: {fileID: 0}
    m_RemovedComponents: []
  m_SourcePrefab: {fileID: 100100000, guid: e687faeaf7135344a9447c41d84d3e85, type: 3}
--- !u!1001 &1032723080
PrefabInstance:
  m_ObjectHideFlags: 0
  serializedVersion: 2
  m_Modification:
    m_TransformParent: {fileID: 0}
    m_Modifications:
    - target: {fileID: 400000, guid: ded8c01d0c7bd234fa7e5575edf1b43e, type: 3}
      propertyPath: m_LocalPosition.x
      value: -.25
      objectReference: {fileID: 0}
    - target: {fileID: 400000, guid: ded8c01d0c7bd234fa7e5575edf1b43e, type: 3}
      propertyPath: m_LocalPosition.y
      value: 0
      objectReference: {fileID: 0}
    - target: {fileID: 400000, guid: ded8c01d0c7bd234fa7e5575edf1b43e, type: 3}
      propertyPath: m_LocalPosition.z
      value: 0
      objectReference: {fileID: 0}
    - target: {fileID: 400000, guid: ded8c01d0c7bd234fa7e5575edf1b43e, type: 3}
      propertyPath: m_LocalRotation.x
      value: 0
      objectReference: {fileID: 0}
    - target: {fileID: 400000, guid: ded8c01d0c7bd234fa7e5575edf1b43e, type: 3}
      propertyPath: m_LocalRotation.y
      value: 0
      objectReference: {fileID: 0}
    - target: {fileID: 400000, guid: ded8c01d0c7bd234fa7e5575edf1b43e, type: 3}
      propertyPath: m_LocalRotation.z
      value: 0
      objectReference: {fileID: 0}
    - target: {fileID: 400000, guid: ded8c01d0c7bd234fa7e5575edf1b43e, type: 3}
      propertyPath: m_LocalRotation.w
      value: 1
      objectReference: {fileID: 0}
    - target: {fileID: 400000, guid: ded8c01d0c7bd234fa7e5575edf1b43e, type: 3}
      propertyPath: m_RootOrder
      value: 14
      objectReference: {fileID: 0}
    m_RemovedComponents: []
  m_SourcePrefab: {fileID: 100100000, guid: ded8c01d0c7bd234fa7e5575edf1b43e, type: 3}
--- !u!1001 &1108638426
PrefabInstance:
  m_ObjectHideFlags: 0
  serializedVersion: 2
  m_Modification:
    m_TransformParent: {fileID: 0}
    m_Modifications:
    - target: {fileID: 400000, guid: deb2c97d0ce958b4287dbb531655ac00, type: 3}
      propertyPath: m_LocalPosition.x
      value: .25
      objectReference: {fileID: 0}
    - target: {fileID: 400000, guid: deb2c97d0ce958b4287dbb531655ac00, type: 3}
      propertyPath: m_LocalPosition.y
      value: 0
      objectReference: {fileID: 0}
    - target: {fileID: 400000, guid: deb2c97d0ce958b4287dbb531655ac00, type: 3}
      propertyPath: m_LocalPosition.z
      value: -.25
      objectReference: {fileID: 0}
    - target: {fileID: 400000, guid: deb2c97d0ce958b4287dbb531655ac00, type: 3}
      propertyPath: m_LocalRotation.x
      value: 0
      objectReference: {fileID: 0}
    - target: {fileID: 400000, guid: deb2c97d0ce958b4287dbb531655ac00, type: 3}
      propertyPath: m_LocalRotation.y
      value: 0
      objectReference: {fileID: 0}
    - target: {fileID: 400000, guid: deb2c97d0ce958b4287dbb531655ac00, type: 3}
      propertyPath: m_LocalRotation.z
      value: 0
      objectReference: {fileID: 0}
    - target: {fileID: 400000, guid: deb2c97d0ce958b4287dbb531655ac00, type: 3}
      propertyPath: m_LocalRotation.w
      value: 1
      objectReference: {fileID: 0}
    - target: {fileID: 400000, guid: deb2c97d0ce958b4287dbb531655ac00, type: 3}
      propertyPath: m_RootOrder
      value: 24
      objectReference: {fileID: 0}
    m_RemovedComponents: []
  m_SourcePrefab: {fileID: 100100000, guid: deb2c97d0ce958b4287dbb531655ac00, type: 3}
--- !u!1001 &1202164846
PrefabInstance:
  m_ObjectHideFlags: 0
  serializedVersion: 2
  m_Modification:
    m_TransformParent: {fileID: 0}
    m_Modifications:
    - target: {fileID: 400000, guid: 801b6d29660db3c4a898b88b2050a7ad, type: 3}
      propertyPath: m_LocalPosition.x
      value: .5
      objectReference: {fileID: 0}
    - target: {fileID: 400000, guid: 801b6d29660db3c4a898b88b2050a7ad, type: 3}
      propertyPath: m_LocalPosition.y
      value: 0
      objectReference: {fileID: 0}
    - target: {fileID: 400000, guid: 801b6d29660db3c4a898b88b2050a7ad, type: 3}
      propertyPath: m_LocalPosition.z
      value: -.25
      objectReference: {fileID: 0}
    - target: {fileID: 400000, guid: 801b6d29660db3c4a898b88b2050a7ad, type: 3}
      propertyPath: m_LocalRotation.x
      value: 0
      objectReference: {fileID: 0}
    - target: {fileID: 400000, guid: 801b6d29660db3c4a898b88b2050a7ad, type: 3}
      propertyPath: m_LocalRotation.y
      value: 0
      objectReference: {fileID: 0}
    - target: {fileID: 400000, guid: 801b6d29660db3c4a898b88b2050a7ad, type: 3}
      propertyPath: m_LocalRotation.z
      value: 0
      objectReference: {fileID: 0}
    - target: {fileID: 400000, guid: 801b6d29660db3c4a898b88b2050a7ad, type: 3}
      propertyPath: m_LocalRotation.w
      value: 1
      objectReference: {fileID: 0}
    - target: {fileID: 400000, guid: 801b6d29660db3c4a898b88b2050a7ad, type: 3}
      propertyPath: m_RootOrder
      value: 26
      objectReference: {fileID: 0}
    m_RemovedComponents: []
  m_SourcePrefab: {fileID: 100100000, guid: 801b6d29660db3c4a898b88b2050a7ad, type: 3}
--- !u!1001 &1340201151
PrefabInstance:
  m_ObjectHideFlags: 0
  serializedVersion: 2
  m_Modification:
    m_TransformParent: {fileID: 0}
    m_Modifications:
    - target: {fileID: 400000, guid: 76d88ba3281c6384b95a23d34b0509f7, type: 3}
      propertyPath: m_LocalPosition.x
      value: .381000012
      objectReference: {fileID: 0}
    - target: {fileID: 400000, guid: 76d88ba3281c6384b95a23d34b0509f7, type: 3}
      propertyPath: m_LocalPosition.y
      value: 0
      objectReference: {fileID: 0}
    - target: {fileID: 400000, guid: 76d88ba3281c6384b95a23d34b0509f7, type: 3}
      propertyPath: m_LocalPosition.z
      value: -.495999992
      objectReference: {fileID: 0}
    - target: {fileID: 400000, guid: 76d88ba3281c6384b95a23d34b0509f7, type: 3}
      propertyPath: m_LocalRotation.x
      value: 0
      objectReference: {fileID: 0}
    - target: {fileID: 400000, guid: 76d88ba3281c6384b95a23d34b0509f7, type: 3}
      propertyPath: m_LocalRotation.y
      value: 0
      objectReference: {fileID: 0}
    - target: {fileID: 400000, guid: 76d88ba3281c6384b95a23d34b0509f7, type: 3}
      propertyPath: m_LocalRotation.z
      value: 0
      objectReference: {fileID: 0}
    - target: {fileID: 400000, guid: 76d88ba3281c6384b95a23d34b0509f7, type: 3}
      propertyPath: m_LocalRotation.w
      value: 1
      objectReference: {fileID: 0}
    - target: {fileID: 400000, guid: 76d88ba3281c6384b95a23d34b0509f7, type: 3}
      propertyPath: m_RootOrder
      value: 5
      objectReference: {fileID: 0}
    m_RemovedComponents: []
  m_SourcePrefab: {fileID: 100100000, guid: 76d88ba3281c6384b95a23d34b0509f7, type: 3}
--- !u!1001 &1368211885
PrefabInstance:
  m_ObjectHideFlags: 0
  serializedVersion: 2
  m_Modification:
    m_TransformParent: {fileID: 0}
    m_Modifications:
    - target: {fileID: 400000, guid: aa078c3e90441f042854e1b6eb599baf, type: 3}
      propertyPath: m_LocalPosition.x
      value: 1.21599996
      objectReference: {fileID: 0}
    - target: {fileID: 400000, guid: aa078c3e90441f042854e1b6eb599baf, type: 3}
      propertyPath: m_LocalPosition.y
      value: 0
      objectReference: {fileID: 0}
    - target: {fileID: 400000, guid: aa078c3e90441f042854e1b6eb599baf, type: 3}
      propertyPath: m_LocalPosition.z
      value: -.658999979
      objectReference: {fileID: 0}
    - target: {fileID: 400000, guid: aa078c3e90441f042854e1b6eb599baf, type: 3}
      propertyPath: m_LocalRotation.x
      value: 0
      objectReference: {fileID: 0}
    - target: {fileID: 400000, guid: aa078c3e90441f042854e1b6eb599baf, type: 3}
      propertyPath: m_LocalRotation.y
      value: 0
      objectReference: {fileID: 0}
    - target: {fileID: 400000, guid: aa078c3e90441f042854e1b6eb599baf, type: 3}
      propertyPath: m_LocalRotation.z
      value: 0
      objectReference: {fileID: 0}
    - target: {fileID: 400000, guid: aa078c3e90441f042854e1b6eb599baf, type: 3}
      propertyPath: m_LocalRotation.w
      value: 1
      objectReference: {fileID: 0}
    - target: {fileID: 400000, guid: aa078c3e90441f042854e1b6eb599baf, type: 3}
      propertyPath: m_RootOrder
      value: 17
      objectReference: {fileID: 0}
    m_RemovedComponents: []
  m_SourcePrefab: {fileID: 100100000, guid: aa078c3e90441f042854e1b6eb599baf, type: 3}
--- !u!1001 &1370452575
PrefabInstance:
  m_ObjectHideFlags: 0
  serializedVersion: 2
  m_Modification:
    m_TransformParent: {fileID: 0}
    m_Modifications:
    - target: {fileID: 400000, guid: e29fbe76887c73e4d891adf8377d082f, type: 3}
      propertyPath: m_LocalPosition.x
      value: .912
      objectReference: {fileID: 0}
    - target: {fileID: 400000, guid: e29fbe76887c73e4d891adf8377d082f, type: 3}
      propertyPath: m_LocalPosition.y
      value: 0
      objectReference: {fileID: 0}
    - target: {fileID: 400000, guid: e29fbe76887c73e4d891adf8377d082f, type: 3}
      propertyPath: m_LocalPosition.z
      value: -.386999995
      objectReference: {fileID: 0}
    - target: {fileID: 400000, guid: e29fbe76887c73e4d891adf8377d082f, type: 3}
      propertyPath: m_LocalRotation.x
      value: 0
      objectReference: {fileID: 0}
    - target: {fileID: 400000, guid: e29fbe76887c73e4d891adf8377d082f, type: 3}
      propertyPath: m_LocalRotation.y
      value: 0
      objectReference: {fileID: 0}
    - target: {fileID: 400000, guid: e29fbe76887c73e4d891adf8377d082f, type: 3}
      propertyPath: m_LocalRotation.z
      value: 0
      objectReference: {fileID: 0}
    - target: {fileID: 400000, guid: e29fbe76887c73e4d891adf8377d082f, type: 3}
      propertyPath: m_LocalRotation.w
      value: 1
      objectReference: {fileID: 0}
    - target: {fileID: 400000, guid: e29fbe76887c73e4d891adf8377d082f, type: 3}
      propertyPath: m_RootOrder
      value: 7
      objectReference: {fileID: 0}
    m_RemovedComponents: []
  m_SourcePrefab: {fileID: 100100000, guid: e29fbe76887c73e4d891adf8377d082f, type: 3}
--- !u!1001 &1399935697
PrefabInstance:
  m_ObjectHideFlags: 0
  serializedVersion: 2
  m_Modification:
    m_TransformParent: {fileID: 0}
    m_Modifications:
    - target: {fileID: 400000, guid: 9f57b6149f64d7845aa382db04baa059, type: 3}
      propertyPath: m_LocalPosition.x
      value: 1.24300003
      objectReference: {fileID: 0}
    - target: {fileID: 400000, guid: 9f57b6149f64d7845aa382db04baa059, type: 3}
      propertyPath: m_LocalPosition.y
      value: 0
      objectReference: {fileID: 0}
    - target: {fileID: 400000, guid: 9f57b6149f64d7845aa382db04baa059, type: 3}
      propertyPath: m_LocalPosition.z
      value: -.386999995
      objectReference: {fileID: 0}
    - target: {fileID: 400000, guid: 9f57b6149f64d7845aa382db04baa059, type: 3}
      propertyPath: m_LocalRotation.x
      value: 0
      objectReference: {fileID: 0}
    - target: {fileID: 400000, guid: 9f57b6149f64d7845aa382db04baa059, type: 3}
      propertyPath: m_LocalRotation.y
      value: 0
      objectReference: {fileID: 0}
    - target: {fileID: 400000, guid: 9f57b6149f64d7845aa382db04baa059, type: 3}
      propertyPath: m_LocalRotation.z
      value: 0
      objectReference: {fileID: 0}
    - target: {fileID: 400000, guid: 9f57b6149f64d7845aa382db04baa059, type: 3}
      propertyPath: m_LocalRotation.w
      value: 1
      objectReference: {fileID: 0}
    - target: {fileID: 400000, guid: 9f57b6149f64d7845aa382db04baa059, type: 3}
      propertyPath: m_RootOrder
      value: 2
      objectReference: {fileID: 0}
    m_RemovedComponents: []
  m_SourcePrefab: {fileID: 100100000, guid: 9f57b6149f64d7845aa382db04baa059, type: 3}
--- !u!1001 &1439851950
PrefabInstance:
  m_ObjectHideFlags: 0
  serializedVersion: 2
  m_Modification:
    m_TransformParent: {fileID: 0}
    m_Modifications:
    - target: {fileID: 400000, guid: 317efe26569b26343b8504a3cd9d9f36, type: 3}
      propertyPath: m_LocalPosition.x
      value: 1.403
      objectReference: {fileID: 0}
    - target: {fileID: 400000, guid: 317efe26569b26343b8504a3cd9d9f36, type: 3}
      propertyPath: m_LocalPosition.y
      value: 0
      objectReference: {fileID: 0}
    - target: {fileID: 400000, guid: 317efe26569b26343b8504a3cd9d9f36, type: 3}
      propertyPath: m_LocalPosition.z
      value: -.129999995
      objectReference: {fileID: 0}
    - target: {fileID: 400000, guid: 317efe26569b26343b8504a3cd9d9f36, type: 3}
      propertyPath: m_LocalRotation.x
      value: 0
      objectReference: {fileID: 0}
    - target: {fileID: 400000, guid: 317efe26569b26343b8504a3cd9d9f36, type: 3}
      propertyPath: m_LocalRotation.y
      value: 0
      objectReference: {fileID: 0}
    - target: {fileID: 400000, guid: 317efe26569b26343b8504a3cd9d9f36, type: 3}
      propertyPath: m_LocalRotation.z
      value: 0
      objectReference: {fileID: 0}
    - target: {fileID: 400000, guid: 317efe26569b26343b8504a3cd9d9f36, type: 3}
      propertyPath: m_LocalRotation.w
      value: 1
      objectReference: {fileID: 0}
    - target: {fileID: 400000, guid: 317efe26569b26343b8504a3cd9d9f36, type: 3}
      propertyPath: m_RootOrder
      value: 6
      objectReference: {fileID: 0}
    m_RemovedComponents: []
  m_SourcePrefab: {fileID: 100100000, guid: 317efe26569b26343b8504a3cd9d9f36, type: 3}
--- !u!1001 &1455357301
PrefabInstance:
  m_ObjectHideFlags: 0
  serializedVersion: 2
  m_Modification:
    m_TransformParent: {fileID: 0}
    m_Modifications:
    - target: {fileID: 400000, guid: 1448c8d4c8bad8049a263a14f560880a, type: 3}
      propertyPath: m_LocalPosition.x
      value: 1
      objectReference: {fileID: 0}
    - target: {fileID: 400000, guid: 1448c8d4c8bad8049a263a14f560880a, type: 3}
      propertyPath: m_LocalPosition.y
      value: 0
      objectReference: {fileID: 0}
    - target: {fileID: 400000, guid: 1448c8d4c8bad8049a263a14f560880a, type: 3}
      propertyPath: m_LocalPosition.z
      value: 0
      objectReference: {fileID: 0}
    - target: {fileID: 400000, guid: 1448c8d4c8bad8049a263a14f560880a, type: 3}
      propertyPath: m_LocalRotation.x
      value: 0
      objectReference: {fileID: 0}
    - target: {fileID: 400000, guid: 1448c8d4c8bad8049a263a14f560880a, type: 3}
      propertyPath: m_LocalRotation.y
      value: 0
      objectReference: {fileID: 0}
    - target: {fileID: 400000, guid: 1448c8d4c8bad8049a263a14f560880a, type: 3}
      propertyPath: m_LocalRotation.z
      value: 0
      objectReference: {fileID: 0}
    - target: {fileID: 400000, guid: 1448c8d4c8bad8049a263a14f560880a, type: 3}
      propertyPath: m_LocalRotation.w
      value: 1
      objectReference: {fileID: 0}
    - target: {fileID: 400000, guid: 1448c8d4c8bad8049a263a14f560880a, type: 3}
      propertyPath: m_RootOrder
      value: 13
      objectReference: {fileID: 0}
    m_RemovedComponents: []
  m_SourcePrefab: {fileID: 100100000, guid: 1448c8d4c8bad8049a263a14f560880a, type: 3}
--- !u!1001 &1771524888
PrefabInstance:
  m_ObjectHideFlags: 0
  serializedVersion: 2
  m_Modification:
    m_TransformParent: {fileID: 0}
    m_Modifications:
    - target: {fileID: 400000, guid: 4322f20ae41099841928383bf752dab3, type: 3}
      propertyPath: m_LocalPosition.x
      value: .75
      objectReference: {fileID: 0}
    - target: {fileID: 400000, guid: 4322f20ae41099841928383bf752dab3, type: 3}
      propertyPath: m_LocalPosition.y
      value: 0
      objectReference: {fileID: 0}
    - target: {fileID: 400000, guid: 4322f20ae41099841928383bf752dab3, type: 3}
      propertyPath: m_LocalPosition.z
      value: 0
      objectReference: {fileID: 0}
    - target: {fileID: 400000, guid: 4322f20ae41099841928383bf752dab3, type: 3}
      propertyPath: m_LocalRotation.x
      value: 0
      objectReference: {fileID: 0}
    - target: {fileID: 400000, guid: 4322f20ae41099841928383bf752dab3, type: 3}
      propertyPath: m_LocalRotation.y
      value: 0
      objectReference: {fileID: 0}
    - target: {fileID: 400000, guid: 4322f20ae41099841928383bf752dab3, type: 3}
      propertyPath: m_LocalRotation.z
      value: 0
      objectReference: {fileID: 0}
    - target: {fileID: 400000, guid: 4322f20ae41099841928383bf752dab3, type: 3}
      propertyPath: m_LocalRotation.w
      value: 1
      objectReference: {fileID: 0}
    - target: {fileID: 400000, guid: 4322f20ae41099841928383bf752dab3, type: 3}
      propertyPath: m_RootOrder
      value: 12
      objectReference: {fileID: 0}
    m_RemovedComponents: []
  m_SourcePrefab: {fileID: 100100000, guid: 4322f20ae41099841928383bf752dab3, type: 3}
--- !u!1001 &1795185248
PrefabInstance:
  m_ObjectHideFlags: 0
  serializedVersion: 2
  m_Modification:
    m_TransformParent: {fileID: 0}
    m_Modifications:
    - target: {fileID: 400000, guid: f594ee86169cd274f9247a79ba81ae69, type: 3}
      propertyPath: m_LocalPosition.x
      value: .25
      objectReference: {fileID: 0}
    - target: {fileID: 400000, guid: f594ee86169cd274f9247a79ba81ae69, type: 3}
      propertyPath: m_LocalPosition.y
      value: 0
      objectReference: {fileID: 0}
    - target: {fileID: 400000, guid: f594ee86169cd274f9247a79ba81ae69, type: 3}
      propertyPath: m_LocalPosition.z
      value: 0
      objectReference: {fileID: 0}
    - target: {fileID: 400000, guid: f594ee86169cd274f9247a79ba81ae69, type: 3}
      propertyPath: m_LocalRotation.x
      value: 0
      objectReference: {fileID: 0}
    - target: {fileID: 400000, guid: f594ee86169cd274f9247a79ba81ae69, type: 3}
      propertyPath: m_LocalRotation.y
      value: 0
      objectReference: {fileID: 0}
    - target: {fileID: 400000, guid: f594ee86169cd274f9247a79ba81ae69, type: 3}
      propertyPath: m_LocalRotation.z
      value: 0
      objectReference: {fileID: 0}
    - target: {fileID: 400000, guid: f594ee86169cd274f9247a79ba81ae69, type: 3}
      propertyPath: m_LocalRotation.w
      value: 1
      objectReference: {fileID: 0}
    - target: {fileID: 400000, guid: f594ee86169cd274f9247a79ba81ae69, type: 3}
      propertyPath: m_RootOrder
      value: 16
      objectReference: {fileID: 0}
    m_RemovedComponents: []
  m_SourcePrefab: {fileID: 100100000, guid: f594ee86169cd274f9247a79ba81ae69, type: 3}
--- !u!1001 &1846920541
PrefabInstance:
  m_ObjectHideFlags: 0
  serializedVersion: 2
  m_Modification:
    m_TransformParent: {fileID: 0}
    m_Modifications:
    - target: {fileID: 400000, guid: 26fe067ab5b9df542964cb2fd74a5dc8, type: 3}
      propertyPath: m_LocalPosition.x
      value: 0
      objectReference: {fileID: 0}
    - target: {fileID: 400000, guid: 26fe067ab5b9df542964cb2fd74a5dc8, type: 3}
      propertyPath: m_LocalPosition.y
      value: 0
      objectReference: {fileID: 0}
    - target: {fileID: 400000, guid: 26fe067ab5b9df542964cb2fd74a5dc8, type: 3}
      propertyPath: m_LocalPosition.z
      value: -.497799993
      objectReference: {fileID: 0}
    - target: {fileID: 400000, guid: 26fe067ab5b9df542964cb2fd74a5dc8, type: 3}
      propertyPath: m_LocalRotation.x
      value: 0
      objectReference: {fileID: 0}
    - target: {fileID: 400000, guid: 26fe067ab5b9df542964cb2fd74a5dc8, type: 3}
      propertyPath: m_LocalRotation.y
      value: 0
      objectReference: {fileID: 0}
    - target: {fileID: 400000, guid: 26fe067ab5b9df542964cb2fd74a5dc8, type: 3}
      propertyPath: m_LocalRotation.z
      value: 0
      objectReference: {fileID: 0}
    - target: {fileID: 400000, guid: 26fe067ab5b9df542964cb2fd74a5dc8, type: 3}
      propertyPath: m_LocalRotation.w
      value: 1
      objectReference: {fileID: 0}
    - target: {fileID: 400000, guid: 26fe067ab5b9df542964cb2fd74a5dc8, type: 3}
      propertyPath: m_RootOrder
      value: 9
      objectReference: {fileID: 0}
    m_RemovedComponents: []
  m_SourcePrefab: {fileID: 100100000, guid: 26fe067ab5b9df542964cb2fd74a5dc8, type: 3}
--- !u!1001 &1868901794
PrefabInstance:
  m_ObjectHideFlags: 0
  serializedVersion: 2
  m_Modification:
    m_TransformParent: {fileID: 0}
    m_Modifications:
    - target: {fileID: 400000, guid: 3960649212d08a54d9a8f345e917a17f, type: 3}
      propertyPath: m_LocalPosition.x
      value: .829999983
      objectReference: {fileID: 0}
    - target: {fileID: 400000, guid: 3960649212d08a54d9a8f345e917a17f, type: 3}
      propertyPath: m_LocalPosition.y
      value: 0
      objectReference: {fileID: 0}
    - target: {fileID: 400000, guid: 3960649212d08a54d9a8f345e917a17f, type: 3}
      propertyPath: m_LocalPosition.z
      value: -.381999999
      objectReference: {fileID: 0}
    - target: {fileID: 400000, guid: 3960649212d08a54d9a8f345e917a17f, type: 3}
      propertyPath: m_LocalRotation.x
      value: 0
      objectReference: {fileID: 0}
    - target: {fileID: 400000, guid: 3960649212d08a54d9a8f345e917a17f, type: 3}
      propertyPath: m_LocalRotation.y
      value: 0
      objectReference: {fileID: 0}
    - target: {fileID: 400000, guid: 3960649212d08a54d9a8f345e917a17f, type: 3}
      propertyPath: m_LocalRotation.z
      value: 0
      objectReference: {fileID: 0}
    - target: {fileID: 400000, guid: 3960649212d08a54d9a8f345e917a17f, type: 3}
      propertyPath: m_LocalRotation.w
      value: 1
      objectReference: {fileID: 0}
    - target: {fileID: 400000, guid: 3960649212d08a54d9a8f345e917a17f, type: 3}
      propertyPath: m_RootOrder
      value: 23
      objectReference: {fileID: 0}
    m_RemovedComponents: []
  m_SourcePrefab: {fileID: 100100000, guid: 3960649212d08a54d9a8f345e917a17f, type: 3}
--- !u!1001 &1873140780
PrefabInstance:
  m_ObjectHideFlags: 0
  serializedVersion: 2
  m_Modification:
    m_TransformParent: {fileID: 0}
    m_Modifications:
    - target: {fileID: 440608, guid: 294188356fc677c4f9802fe5d6bfc5a1, type: 3}
      propertyPath: m_LocalPosition.x
      value: .919510961
      objectReference: {fileID: 0}
    - target: {fileID: 440608, guid: 294188356fc677c4f9802fe5d6bfc5a1, type: 3}
      propertyPath: m_LocalPosition.y
      value: -1.87856131e-09
      objectReference: {fileID: 0}
    - target: {fileID: 440608, guid: 294188356fc677c4f9802fe5d6bfc5a1, type: 3}
      propertyPath: m_LocalPosition.z
      value: -.508536935
      objectReference: {fileID: 0}
    - target: {fileID: 440608, guid: 294188356fc677c4f9802fe5d6bfc5a1, type: 3}
      propertyPath: m_LocalRotation.x
      value: .430460125
      objectReference: {fileID: 0}
    - target: {fileID: 440608, guid: 294188356fc677c4f9802fe5d6bfc5a1, type: 3}
      propertyPath: m_LocalRotation.y
      value: .560985029
      objectReference: {fileID: 0}
    - target: {fileID: 440608, guid: 294188356fc677c4f9802fe5d6bfc5a1, type: 3}
      propertyPath: m_LocalRotation.z
      value: -.560985029
      objectReference: {fileID: 0}
    - target: {fileID: 440608, guid: 294188356fc677c4f9802fe5d6bfc5a1, type: 3}
      propertyPath: m_LocalRotation.w
      value: .430460066
      objectReference: {fileID: 0}
    - target: {fileID: 440608, guid: 294188356fc677c4f9802fe5d6bfc5a1, type: 3}
      propertyPath: m_RootOrder
      value: 29
      objectReference: {fileID: 0}
    m_RemovedComponents: []
  m_SourcePrefab: {fileID: 100100000, guid: 294188356fc677c4f9802fe5d6bfc5a1, type: 3}
--- !u!1 &2130715381
GameObject:
  m_ObjectHideFlags: 0
  m_CorrespondingSourceObject: {fileID: 0}
  m_PrefabInstance: {fileID: 0}
  m_PrefabAsset: {fileID: 0}
  serializedVersion: 6
  m_Component:
  - component: {fileID: 2130715386}
  - component: {fileID: 2130715385}
  - component: {fileID: 2130715384}
  - component: {fileID: 2130715383}
  - component: {fileID: 2130715382}
  m_Layer: 0
  m_Name: Main Camera
  m_TagString: MainCamera
  m_Icon: {fileID: 0}
  m_NavMeshLayer: 0
  m_StaticEditorFlags: 0
  m_IsActive: 1
--- !u!81 &2130715382
AudioListener:
  m_ObjectHideFlags: 0
  m_CorrespondingSourceObject: {fileID: 0}
  m_PrefabInstance: {fileID: 0}
  m_PrefabAsset: {fileID: 0}
  m_GameObject: {fileID: 2130715381}
  m_Enabled: 1
--- !u!124 &2130715383
Behaviour:
  m_ObjectHideFlags: 0
  m_CorrespondingSourceObject: {fileID: 0}
  m_PrefabInstance: {fileID: 0}
  m_PrefabAsset: {fileID: 0}
  m_GameObject: {fileID: 2130715381}
  m_Enabled: 1
--- !u!92 &2130715384
Behaviour:
  m_ObjectHideFlags: 0
  m_CorrespondingSourceObject: {fileID: 0}
  m_PrefabInstance: {fileID: 0}
  m_PrefabAsset: {fileID: 0}
  m_GameObject: {fileID: 2130715381}
  m_Enabled: 1
--- !u!20 &2130715385
Camera:
  m_ObjectHideFlags: 0
  m_CorrespondingSourceObject: {fileID: 0}
  m_PrefabInstance: {fileID: 0}
  m_PrefabAsset: {fileID: 0}
  m_GameObject: {fileID: 2130715381}
  m_Enabled: 1
  serializedVersion: 2
  m_ClearFlags: 1
  m_BackGroundColor: {r: 0.19215687, g: 0.3019608, b: 0.4745098, a: 0.019607844}
  m_projectionMatrixMode: 1
  m_SensorSize: {x: 36, y: 24}
  m_LensShift: {x: 0, y: 0}
  m_GateFitMode: 2
  m_FocalLength: 50
  m_NormalizedViewPortRect:
    serializedVersion: 2
    x: 0
    y: 0
    width: 1
    height: 1
  near clip plane: 0.3
  far clip plane: 1000
  field of view: 60
  orthographic: 0
  orthographic size: 5
  m_Depth: -1
  m_CullingMask:
    serializedVersion: 2
    m_Bits: 4294967295
  m_RenderingPath: -1
  m_TargetTexture: {fileID: 0}
  m_TargetDisplay: 0
  m_TargetEye: 3
  m_HDR: 0
  m_AllowMSAA: 1
  m_AllowDynamicResolution: 0
  m_ForceIntoRT: 0
  m_OcclusionCulling: 1
  m_StereoConvergence: 10
  m_StereoSeparation: 0.022
--- !u!4 &2130715386
Transform:
  m_ObjectHideFlags: 0
  m_CorrespondingSourceObject: {fileID: 0}
  m_PrefabInstance: {fileID: 0}
  m_PrefabAsset: {fileID: 0}
  m_GameObject: {fileID: 2130715381}
  m_LocalRotation: {x: 0, y: 0, z: 0, w: 1}
  m_LocalPosition: {x: 0, y: 1, z: -10}
  m_LocalScale: {x: 1, y: 1, z: 1}
  m_Children: []
  m_Father: {fileID: 0}
  m_RootOrder: 0
  m_LocalEulerAnglesHint: {x: 0, y: 0, z: 0}
--- !u!1001 &2134837761
PrefabInstance:
  m_ObjectHideFlags: 0
  serializedVersion: 2
  m_Modification:
    m_TransformParent: {fileID: 0}
    m_Modifications:
    - target: {fileID: 400000, guid: d267a50da680b2548aa52dec2dae9b7f, type: 3}
      propertyPath: m_LocalPosition.x
      value: .610000014
      objectReference: {fileID: 0}
    - target: {fileID: 400000, guid: d267a50da680b2548aa52dec2dae9b7f, type: 3}
      propertyPath: m_LocalPosition.y
      value: 0
      objectReference: {fileID: 0}
    - target: {fileID: 400000, guid: d267a50da680b2548aa52dec2dae9b7f, type: 3}
      propertyPath: m_LocalPosition.z
      value: -.620000005
      objectReference: {fileID: 0}
    - target: {fileID: 400000, guid: d267a50da680b2548aa52dec2dae9b7f, type: 3}
      propertyPath: m_LocalRotation.x
      value: 0
      objectReference: {fileID: 0}
    - target: {fileID: 400000, guid: d267a50da680b2548aa52dec2dae9b7f, type: 3}
      propertyPath: m_LocalRotation.y
      value: 0
      objectReference: {fileID: 0}
    - target: {fileID: 400000, guid: d267a50da680b2548aa52dec2dae9b7f, type: 3}
      propertyPath: m_LocalRotation.z
      value: 0
      objectReference: {fileID: 0}
    - target: {fileID: 400000, guid: d267a50da680b2548aa52dec2dae9b7f, type: 3}
      propertyPath: m_LocalRotation.w
      value: 1
      objectReference: {fileID: 0}
    - target: {fileID: 400000, guid: d267a50da680b2548aa52dec2dae9b7f, type: 3}
      propertyPath: m_RootOrder
      value: 20
      objectReference: {fileID: 0}
    m_RemovedComponents: []
  m_SourcePrefab: {fileID: 100100000, guid: d267a50da680b2548aa52dec2dae9b7f, type: 3}
--- !u!1 &2136184135
GameObject:
  m_ObjectHideFlags: 0
  m_CorrespondingSourceObject: {fileID: 0}
  m_PrefabInstance: {fileID: 0}
  m_PrefabAsset: {fileID: 0}
  serializedVersion: 6
  m_Component:
  - component: {fileID: 2136184137}
  - component: {fileID: 2136184136}
  m_Layer: 0
  m_Name: Directional Light
  m_TagString: Untagged
  m_Icon: {fileID: 0}
  m_NavMeshLayer: 0
  m_StaticEditorFlags: 0
  m_IsActive: 1
--- !u!108 &2136184136
Light:
  m_ObjectHideFlags: 0
  m_CorrespondingSourceObject: {fileID: 0}
  m_PrefabInstance: {fileID: 0}
  m_PrefabAsset: {fileID: 0}
  m_GameObject: {fileID: 2136184135}
  m_Enabled: 1
  serializedVersion: 8
  m_Type: 1
  m_Color: {r: 1, g: 0.95686275, b: 0.8392157, a: 1}
  m_Intensity: 1
  m_Range: 10
  m_SpotAngle: 30
  m_CookieSize: 10
  m_Shadows:
    m_Type: 2
    m_Resolution: -1
    m_CustomResolution: -1
    m_Strength: 1
    m_Bias: 0.05
    m_NormalBias: 0.4
    m_NearPlane: 0.2
  m_Cookie: {fileID: 0}
  m_DrawHalo: 0
  m_Flare: {fileID: 0}
  m_RenderMode: 0
  m_CullingMask:
    serializedVersion: 2
    m_Bits: 4294967295
  m_Lightmapping: 4
  m_LightShadowCasterMode: 0
  m_AreaSize: {x: 1, y: 1}
  m_BounceIntensity: 1
  m_ColorTemperature: 6570
  m_UseColorTemperature: 0
  m_ShadowRadius: 0
  m_ShadowAngle: 0
--- !u!4 &2136184137
Transform:
  m_ObjectHideFlags: 0
  m_CorrespondingSourceObject: {fileID: 0}
  m_PrefabInstance: {fileID: 0}
  m_PrefabAsset: {fileID: 0}
  m_GameObject: {fileID: 2136184135}
  m_LocalRotation: {x: 0.40821794, y: -0.23456973, z: 0.109381676, w: 0.87542605}
  m_LocalPosition: {x: 0, y: 3, z: 0}
  m_LocalScale: {x: 1, y: 1, z: 1}
  m_Children: []
  m_Father: {fileID: 0}
  m_RootOrder: 1
  m_LocalEulerAnglesHint: {x: 0, y: 0, z: 0}
